Citi Bike
…
This line plot shows the relationship between the Day of the Week and
the Number of Hires across 2018.

We see that hires are lower at weekends than weekdays. Resources are
less heavily used on weekends so there may be scope for promoting more
leisure trips within the current service capacity.

Hours of Day

## # A tsibble: 24 x 2 [1]
##    start_hour_of_day hires
##                <int> <int>
##  1                 0    36
##  2                 1     8
##  3                 2    15
##  4                 3     6
##  5                 4     7
##  6                 5    41
##  7                 6   116
##  8                 7   248
##  9                 8   510
## 10                 9   264
## #  14 more rows
…
